PYSC 800 hw 6
…
Question 6.

diamonds %>% 
  mutate(
    across(
    .cols=c(x, y, z), 
    .fns=sqrt),
    across(
      .cols=c(x,y,z),
      .fns = round,
      digits=2
    )
    ) 

## # A tibble: 53,940 x 10
##    carat cut       color clarity depth table price     x     y     z
##    <dbl> <ord>     <ord> <ord>   <dbl> <dbl> <int> <dbl> <dbl> <dbl>
##  1 0.23  Ideal     E     SI2      61.5    55   326  1.99  1.99  1.56
##  2 0.21  Premium   E     SI1      59.8    61   326  1.97  1.96  1.52
##  3 0.23  Good      E     VS1      56.9    65   327  2.01  2.02  1.52
##  4 0.290 Premium   I     VS2      62.4    58   334  2.05  2.06  1.62
##  5 0.31  Good      J     SI2      63.3    58   335  2.08  2.09  1.66
##  6 0.24  Very Good J     VVS2     62.8    57   336  1.98  1.99  1.57
##  7 0.24  Very Good I     VVS1     62.3    57   336  1.99  1.99  1.57
##  8 0.26  Very Good H     SI1      61.9    55   337  2.02  2.03  1.59
##  9 0.22  Fair      E     VS2      65.1    61   337  1.97  1.94  1.58
## 10 0.23  Very Good H     VS1      59.4    61   338  2     2.01  1.55
## # ... with 53,930 more rows
…
